{"type":"FeatureCollection", "features": [
	{"type":"Feature","geometry":{"type":"MultiPolygon","coordinates":[[[[-61.63356,15.83977],[-61.6505,15.84756],[-61.64477,15.86049],[-61.63496,15.86847],[-61.62563,15.86652],[-61.62231,15.85371],[-61.62954,15.84137],[-61.63356,15.83977]]],[[[-61.00982,16.34998],[-61.00208,16.33396],[-61.01323,16.32734],[-61.01912,16.32757],[-61.03546,16.31792],[-61.04852,16.30761],[-61.07505,16.30216],[-61.08385,16.29655],[-61.09794,16.29609],[-61.09805,16.30345],[-61.08922,16.31232],[-61.07864,16.31245],[-61.0753,16.3191],[-61.05974,16.32253],[-61.05633,16.3267],[-61.02844,16.34058],[-61.01666,16.34892],[-61.00982,16.34998]]],[[[-61.59328,15.85253],[-61.60221,15.85756],[-61.5989,15.86336],[-61.58573,15.86364],[-61.57557,15.87496],[-61.57629,15.85825],[-61.58667,15.85718],[-61.59328,15.85253]]],[[[-61.32312,15.94961],[-61.3193,15.95364],[-61.31813,15.97627],[-61.30854,15.97769],[-61.29637,15.99788],[-61.28973,16.00415],[-61.27585,16.00517],[-61.25932,15.99849],[-61.25274,15.99215],[-61.24172,15.99152],[-61.23309,15.98571],[-61.23114,15.97354],[-61.22449,15.96436],[-61.21914,15.96215],[-61.20061,15.94509],[-61.1951,15.9295],[-61.19723,15.91601],[-61.20455,15.90094],[-61.21782,15.89517],[-61.22171,15.88789],[-61.24251,15.87446],[-61.26331,15.87092],[-61.2739,15.86685],[-61.30231,15.87435],[-61.32262,15.88607],[-61.33184,15.9006],[-61.32943,15.90415],[-61.33696,15.93661],[-61.33706,15.94149],[-61.32312,15.94961]]],[[[-61.80606,16.268],[-61.80958,16.27286],[-61.80248,16.2791],[-61.80001,16.3166],[-61.7868,16.32516],[-61.78744,16.33574],[-61.77927,16.3408],[-61.77834,16.34617],[-61.75947,16.35569],[-61.75035,16.35428],[-61.74328,16.36201],[-61.72806,16.3555],[-61.70875,16.33608],[-61.69397,16.33464],[-61.68596,16.32894],[-61.67261,16.32461],[-61.66901,16.31708],[-61.65218,16.32132],[-61.64117,16.31632],[-61.63315,16.30479],[-61.62279,16.30133],[-61.60882,16.3044],[-61.60353,16.29813],[-61.61116,16.2924],[-61.61242,16.28509],[-61.62071,16.28496],[-61.62428,16.2754],[-61.61144,16.27875],[-61.61353,16.26765],[-61.60292,16.27273],[-61.59857,16.26647],[-61.58502,16.26963],[-61.57916,16.27886],[-61.55865,16.2864],[-61.56065,16.27606],[-61.5495,16.27757],[-61.54723,16.25614],[-61.55308,16.24958],[-61.54845,16.24227],[-61.55075,16.23555],[-61.54296,16.233],[-61.54771,16.22329],[-61.55591,16.23265],[-61.56721,16.23598],[-61.58435,16.23298],[-61.58833,16.21796],[-61.58315,16.20477],[-61.59043,16.19325],[-61.58594,16.18056],[-61.57959,16.17324],[-61.58496,16.16754],[-61.58089,16.15463],[-61.57547,16.1536],[-61.57293,16.13664],[-61.56308,16.13431],[-61.56111,16.12829],[-61.56995,16.12107],[-61.57038,16.11394],[-61.5588,16.09276],[-61.56085,16.0807],[-61.56083,16.06317],[-61.55643,16.05117],[-61.56444,16.04209],[-61.56492,16.03373],[-61.57272,16.02195],[-61.57965,16.01928],[-61.6043,15.99549],[-61.6142,15.989],[-61.61439,15.98214],[-61.621,15.97251],[-61.63459,15.96622],[-61.64853,15.96974],[-61.65934,15.96023],[-61.66909,15.96201],[-61.67588,15.95256],[-61.69997,15.94661],[-61.70697,15.94837],[-61.71119,15.97438],[-61.71772,15.98359],[-61.7228,15.98538],[-61.7467,16.01106],[-61.74906,16.03028],[-61.75456,16.04034],[-61.76474,16.04912],[-61.77035,16.06303],[-61.76733,16.08412],[-61.77271,16.10575],[-61.77429,16.12235],[-61.76986,16.12824],[-61.7715,16.13575],[-61.77898,16.14321],[-61.77511,16.14892],[-61.77591,16.17094],[-61.78263,16.17364],[-61.78231,16.1877],[-61.78773,16.19518],[-61.78289,16.20763],[-61.78494,16.22382],[-61.79221,16.23579],[-61.80129,16.24384],[-61.80602,16.25914],[-61.80606,16.268]]],[[[-61.53048,16.21784],[-61.53463,16.23273],[-61.53965,16.23697],[-61.54654,16.25414],[-61.55065,16.28698],[-61.54423,16.29516],[-61.54724,16.29893],[-61.53726,16.30641],[-61.53446,16.31262],[-61.53554,16.33111],[-61.52963,16.33921],[-61.51944,16.34334],[-61.50808,16.34208],[-61.50577,16.35033],[-61.49536,16.35243],[-61.49809,16.38182],[-61.50678,16.38898],[-61.51413,16.38939],[-61.52575,16.39467],[-61.53318,16.41469],[-61.53344,16.42437],[-61.54115,16.43888],[-61.53545,16.45497],[-61.52203,16.46495],[-61.51815,16.47071],[-61.50806,16.47398],[-61.50409,16.48417],[-61.48614,16.49149],[-61.47477,16.50894],[-61.46506,16.50978],[-61.4614,16.49949],[-61.44579,16.50037],[-61.44274,16.49005],[-61.43461,16.48732],[-61.42463,16.47608],[-61.41245,16.4707],[-61.40941,16.4653],[-61.40642,16.44635],[-61.40301,16.44542],[-61.39831,16.43047],[-61.39842,16.41782],[-61.40543,16.40698],[-61.40538,16.38453],[-61.40181,16.37501],[-61.37951,16.34371],[-61.36842,16.33761],[-61.35222,16.33365],[-61.32924,16.33374],[-61.32145,16.33065],[-61.31311,16.33194],[-61.30521,16.32532],[-61.28699,16.32219],[-61.27884,16.31743],[-61.26724,16.30653],[-61.2595,16.3043],[-61.24326,16.27317],[-61.23204,16.26666],[-61.22042,16.26408],[-61.201,16.24955],[-61.21851,16.25299],[-61.25567,16.25601],[-61.26577,16.25022],[-61.28084,16.25003],[-61.28864,16.24494],[-61.31895,16.2403],[-61.33858,16.24204],[-61.34765,16.23673],[-61.37046,16.23217],[-61.37943,16.22216],[-61.39032,16.22364],[-61.40567,16.21657],[-61.40982,16.21186],[-61.42448,16.20903],[-61.43828,16.20891],[-61.45074,16.20041],[-61.46028,16.20044],[-61.4655,16.19672],[-61.48708,16.20515],[-61.5083,16.20715],[-61.50848,16.21493],[-61.52041,16.21447],[-61.53048,16.21784]]]]},"properties":{"code":"971","nom":"Guadeloupe"}},
	{"type":"Feature","geometry":{"type":"Polygon","coordinates":[[[-61.11754,14.62759],[-61.13591,14.63411],[-61.13807,14.64104],[-61.14463,14.64652],[-61.15204,14.64964],[-61.15676,14.65651],[-61.15897,14.66425],[-61.1766,14.68852],[-61.18484,14.70852],[-61.18191,14.72352],[-61.17655,14.74121],[-61.17725,14.74619],[-61.18538,14.75728],[-61.19836,14.76673],[-61.20481,14.77934],[-61.21339,14.7814],[-61.21914,14.78885],[-61.22255,14.79801],[-61.22716,14.80256],[-61.22927,14.82211],[-61.22299,14.83839],[-61.21467,14.84788],[-61.21276,14.85446],[-61.20656,14.86166],[-61.19528,14.86456],[-61.17052,14.87651],[-61.14818,14.87878],[-61.13884,14.87777],[-61.13487,14.8748],[-61.12696,14.87451],[-61.1203,14.87022],[-61.11398,14.87039],[-61.097,14.86045],[-61.08976,14.85366],[-61.08432,14.85312],[-61.07751,14.84652],[-61.06446,14.84339],[-61.05725,14.83438],[-61.04968,14.83287],[-61.04351,14.83703],[-61.03642,14.82988],[-61.02916,14.83036],[-61.03169,14.82333],[-61.02551,14.82328],[-61.02081,14.81827],[-61.01677,14.80807],[-61.00788,14.80963],[-61.00364,14.80512],[-61.00523,14.80015],[-60.99849,14.79426],[-60.9972,14.78766],[-60.97327,14.76323],[-60.9679,14.76074],[-60.96765,14.75414],[-60.96293,14.74633],[-60.96181,14.73804],[-60.95675,14.73637],[-60.95271,14.74239],[-60.95242,14.7485],[-60.94211,14.75682],[-60.93225,14.76271],[-60.92049,14.75831],[-60.91186,14.76553],[-60.90241,14.76703],[-60.89203,14.77382],[-60.88843,14.78016],[-60.87463,14.77476],[-60.87563,14.76346],[-60.88023,14.7593],[-60.88367,14.76773],[-60.89154,14.76676],[-60.89331,14.76157],[-60.88847,14.75326],[-60.89812,14.74606],[-60.89304,14.73702],[-60.90101,14.73451],[-60.91094,14.73626],[-60.91189,14.74373],[-60.92525,14.75058],[-60.93609,14.75058],[-60.94467,14.73817],[-60.94618,14.72632],[-60.93712,14.71607],[-60.93233,14.70713],[-60.92456,14.70819],[-60.91377,14.71381],[-60.9142,14.70287],[-60.90684,14.69589],[-60.91302,14.69173],[-60.92851,14.68739],[-60.92993,14.67867],[-60.93663,14.68357],[-60.94203,14.66724],[-60.93533,14.6647],[-60.93335,14.65772],[-60.92899,14.65294],[-60.91981,14.65454],[-60.91681,14.66288],[-60.90613,14.66659],[-60.89936,14.66119],[-60.89201,14.66177],[-60.89049,14.66564],[-60.88296,14.66549],[-60.88588,14.65263],[-60.90413,14.64844],[-60.89831,14.6445],[-60.89201,14.63311],[-60.899,14.62285],[-60.89443,14.61942],[-60.88663,14.61841],[-60.87662,14.62154],[-60.87797,14.61232],[-60.87004,14.60592],[-60.86843,14.60008],[-60.87246,14.59631],[-60.85856,14.58932],[-60.85243,14.59365],[-60.849,14.58829],[-60.8536,14.57369],[-60.84831,14.56468],[-60.83297,14.56619],[-60.8301,14.56029],[-60.83553,14.5568],[-60.8361,14.54623],[-60.83188,14.54551],[-60.82496,14.53284],[-60.82572,14.5262],[-60.83303,14.52351],[-60.83687,14.51169],[-60.82491,14.51489],[-60.82247,14.50863],[-60.82368,14.49842],[-60.82118,14.49289],[-60.81617,14.49321],[-60.81064,14.48059],[-60.81873,14.46908],[-60.81488,14.46033],[-60.82364,14.45245],[-60.82254,14.44637],[-60.82523,14.43744],[-60.83434,14.43219],[-60.83544,14.4232],[-60.84051,14.42234],[-60.84453,14.41353],[-60.85285,14.40682],[-60.85749,14.39812],[-60.86881,14.39456],[-60.87652,14.39707],[-60.87892,14.40287],[-60.88448,14.40459],[-60.88659,14.41492],[-60.89318,14.41918],[-60.88629,14.4265],[-60.8799,14.43843],[-60.8845,14.44764],[-60.87224,14.44826],[-60.874,14.4528],[-60.86297,14.46144],[-60.86419,14.46859],[-60.87647,14.47132],[-60.89282,14.45549],[-60.89991,14.45161],[-60.91143,14.46071],[-60.9101,14.46892],[-60.92046,14.46769],[-60.93192,14.46263],[-60.94308,14.46624],[-60.95511,14.46507],[-60.96632,14.47312],[-60.97365,14.46789],[-60.97585,14.47564],[-60.98039,14.48205],[-60.98493,14.47277],[-60.98961,14.46798],[-60.99736,14.46805],[-61.00385,14.47881],[-61.00948,14.47239],[-61.01667,14.47932],[-61.02092,14.48053],[-61.04156,14.47317],[-61.04658,14.46783],[-61.04856,14.45849],[-61.05863,14.45413],[-61.06523,14.45766],[-61.06767,14.4655],[-61.07209,14.46911],[-61.08197,14.4704],[-61.07958,14.47816],[-61.07989,14.48938],[-61.09077,14.49262],[-61.08464,14.49827],[-61.08541,14.50529],[-61.09161,14.50778],[-61.10044,14.50721],[-61.09359,14.52548],[-61.08729,14.52819],[-61.08771,14.53411],[-61.0771,14.54118],[-61.06698,14.54015],[-61.06096,14.54934],[-61.05359,14.55235],[-61.03805,14.55093],[-61.04329,14.54586],[-61.04069,14.54145],[-61.034,14.54198],[-61.02778,14.53714],[-61.02301,14.53977],[-61.01269,14.53577],[-60.9937,14.5466],[-60.98976,14.55024],[-60.99488,14.55877],[-61.00678,14.56226],[-61.01414,14.57057],[-61.00982,14.57605],[-61.01478,14.58193],[-61.02427,14.5848],[-61.02398,14.58999],[-61.01645,14.59572],[-61.02172,14.60331],[-61.01955,14.60728],[-61.02405,14.61305],[-61.03098,14.60624],[-61.04029,14.60582],[-61.04098,14.59619],[-61.04806,14.59833],[-61.0586,14.59442],[-61.06453,14.60138],[-61.07079,14.60293],[-61.09042,14.59864],[-61.09612,14.60515],[-61.10157,14.61536],[-61.11298,14.62652],[-61.11754,14.62759]]]},"properties":{"code":"972","nom":"Martinique"}},
	{"type":"Feature","geometry":{"type":"Polygon","coordinates":[[[-53.46939,5.56526],[-53.40307,5.5637],[-53.31831,5.53874],[-53.26939,5.55226],[-53.12817,5.50554],[-53.07247,5.46828],[-53.01437,5.45535],[-52.95307,5.4552],[-52.85265,5.37397],[-52.83165,5.33329],[-52.78816,5.30754],[-52.72284,5.23687],[-52.66638,5.20027],[-52.6277,5.14633],[-52.5382,5.08848],[-52.46036,5.01215],[-52.41635,4.98177],[-52.35593,4.91755],[-52.30229,4.95135],[-52.26309,4.91419],[-52.22914,4.85964],[-52.17825,4.82277],[-52.11003,4.78476],[-52.01786,4.71837],[-52.00623,4.70183],[-51.91607,4.66885],[-51.86183,4.67209],[-51.8024,4.61836],[-51.78494,4.57668],[-51.7699,4.47066],[-51.75238,4.41825],[-51.70277,4.38987],[-51.71843,4.34045],[-51.67593,4.25378],[-51.62633,4.1951],[-51.65607,4.0539],[-51.74573,4.00149],[-51.78233,3.96409],[-51.78258,3.92075],[-51.79865,3.88696],[-51.8564,3.83267],[-51.874,3.80317],[-51.92632,3.76654],[-51.9217,3.72428],[-51.9726,3.70546],[-51.99347,3.6429],[-52.06041,3.51968],[-52.08683,3.48958],[-52.18908,3.30205],[-52.23361,3.24068],[-52.25976,3.2531],[-52.29251,3.22642],[-52.29935,3.17822],[-52.32938,3.16625],[-52.35167,3.12348],[-52.32594,3.07781],[-52.39513,2.92783],[-52.41989,2.89316],[-52.47345,2.79389],[-52.47593,2.76312],[-52.52934,2.65161],[-52.55524,2.64031],[-52.52768,2.58105],[-52.56121,2.55029],[-52.56521,2.51627],[-52.59762,2.47531],[-52.61798,2.47524],[-52.6573,2.40354],[-52.66058,2.37398],[-52.81856,2.29471],[-52.84183,2.29139],[-52.90109,2.19859],[-52.98784,2.16808],[-53.05191,2.18985],[-53.07364,2.21873],[-53.1339,2.22539],[-53.22419,2.20113],[-53.27457,2.21692],[-53.22685,2.26403],[-53.3072,2.31352],[-53.34009,2.35197],[-53.37214,2.31304],[-53.43082,2.28861],[-53.45062,2.25972],[-53.54676,2.25253],[-53.60446,2.28073],[-53.65692,2.27948],[-53.66549,2.30208],[-53.7439,2.30955],[-53.72084,2.34995],[-53.76604,2.37557],[-53.8556,2.3133],[-53.88277,2.30883],[-53.88524,2.27513],[-53.9414,2.25931],[-53.94433,2.21536],[-53.99041,2.20914],[-54.0159,2.18255],[-54.0656,2.19679],[-54.11214,2.11761],[-54.1686,2.12948],[-54.19041,2.17112],[-54.22414,2.14983],[-54.28828,2.14768],[-54.34422,2.16078],[-54.39738,2.197],[-54.47817,2.21622],[-54.53371,2.29254],[-54.5431,2.32685],[-54.51002,2.33668],[-54.50502,2.39113],[-54.47616,2.43541],[-54.41956,2.43688],[-54.37004,2.50896],[-54.34863,2.52474],[-54.30766,2.64237],[-54.28101,2.66347],[-54.26477,2.72319],[-54.22288,2.75398],[-54.19792,2.80436],[-54.18101,2.86469],[-54.19521,2.88498],[-54.17288,2.93862],[-54.18145,2.98374],[-54.16961,3.0156],[-54.19464,3.06535],[-54.17372,3.10563],[-54.21389,3.15021],[-54.18909,3.20636],[-54.17529,3.20611],[-54.13635,3.26604],[-54.10052,3.30041],[-54.06356,3.31633],[-54.05915,3.37842],[-54.01218,3.42707],[-54.00931,3.53556],[-53.98063,3.60836],[-54.00669,3.64855],[-54.02946,3.63124],[-54.08289,3.67444],[-54.07903,3.70649],[-54.13043,3.80001],[-54.19776,3.80551],[-54.19654,3.85143],[-54.23694,3.8605],[-54.24924,3.90887],[-54.2827,3.92688],[-54.31789,4.01481],[-54.35762,4.05018],[-54.34437,4.11348],[-54.32318,4.13535],[-54.39579,4.20219],[-54.38237,4.26331],[-54.39347,4.29026],[-54.39455,4.36501],[-54.41612,4.3759],[-54.44228,4.43785],[-54.43247,4.46798],[-54.45008,4.52592],[-54.42474,4.55499],[-54.41529,4.6065],[-54.43796,4.6426],[-54.42372,4.66549],[-54.43547,4.72481],[-54.46631,4.73988],[-54.46002,4.77781],[-54.46902,4.8904],[-54.44617,4.93501],[-54.4379,5.01734],[-54.41555,5.08471],[-54.37539,5.1079],[-54.30816,5.22531],[-54.27901,5.26252],[-54.20853,5.30327],[-54.14799,5.36265],[-54.11753,5.4174],[-54.03752,5.51014],[-54.01886,5.52147],[-54.0037,5.5731],[-54.012,5.6635],[-53.96839,5.74519],[-53.89548,5.73309],[-53.83676,5.73235],[-53.78702,5.71871],[-53.72209,5.6859],[-53.5926,5.6083],[-53.46939,5.56526]]]},"properties":{"code":"973","nom":"Guyane"}},
	{"type":"Feature","geometry":{"type":"Polygon","coordinates":[[[55.25415,-21.10974],[55.23094,-21.09094],[55.22038,-21.07434],[55.22378,-21.05329],[55.21714,-21.03647],[55.23638,-21.01757],[55.2465,-21.0199],[55.26315,-21.01263],[55.27653,-21.00109],[55.28054,-20.99129],[55.2822,-20.97083],[55.27765,-20.96004],[55.28381,-20.94414],[55.28415,-20.92557],[55.28971,-20.92295],[55.30433,-20.92915],[55.32506,-20.92956],[55.34451,-20.92222],[55.35206,-20.91143],[55.39505,-20.88184],[55.42594,-20.87421],[55.43921,-20.87679],[55.45117,-20.87174],[55.46962,-20.88425],[55.4851,-20.88588],[55.50288,-20.88226],[55.55064,-20.89544],[55.55718,-20.89155],[55.58179,-20.89755],[55.59245,-20.89596],[55.62192,-20.91106],[55.64773,-20.91561],[55.66606,-20.92647],[55.68261,-20.94368],[55.69683,-20.96581],[55.70069,-20.97861],[55.70039,-21.00252],[55.70683,-21.0269],[55.71832,-21.03233],[55.73235,-21.0499],[55.7322,-21.06197],[55.75145,-21.08386],[55.76262,-21.10061],[55.77144,-21.10697],[55.78003,-21.12198],[55.80006,-21.12728],[55.8098,-21.13733],[55.82589,-21.14362],[55.83498,-21.16044],[55.83483,-21.17996],[55.82584,-21.1861],[55.82553,-21.20049],[55.81406,-21.21429],[55.80159,-21.25972],[55.80378,-21.27886],[55.80828,-21.28731],[55.80382,-21.30976],[55.80729,-21.33676],[55.79916,-21.34791],[55.77558,-21.3645],[55.75639,-21.363],[55.74284,-21.36907],[55.72708,-21.36985],[55.70879,-21.37657],[55.68155,-21.37474],[55.67086,-21.38382],[55.62563,-21.38282],[55.60934,-21.38713],[55.58667,-21.3717],[55.57197,-21.37601],[55.5495,-21.37059],[55.53672,-21.36309],[55.52361,-21.36118],[55.50101,-21.35059],[55.48372,-21.3501],[55.47838,-21.34439],[55.45952,-21.34114],[55.44895,-21.32838],[55.43006,-21.32639],[55.41652,-21.31951],[55.39662,-21.29553],[55.37823,-21.28748],[55.34077,-21.28157],[55.32926,-21.25732],[55.31083,-21.2401],[55.29297,-21.22979],[55.28516,-21.20729],[55.2869,-21.16087],[55.27257,-21.15042],[55.27139,-21.13542],[55.25289,-21.11273],[55.25415,-21.10974]]]},"properties":{"code":"974","nom":"La Réunion"}},
	{"type":"Feature","geometry":{"type":"MultiPolygon","coordinates":[[[[45.04101,-12.64686],[45.04081,-12.64932],[45.03636,-12.65062],[45.03308,-12.65554],[45.02909,-12.65485],[45.03023,-12.65097],[45.02355,-12.64635],[45.01866,-12.64689],[45.02033,-12.64307],[45.02473,-12.64],[45.0266,-12.63659],[45.03323,-12.63998],[45.03427,-12.64183],[45.04101,-12.64686]]],[[[45.2342,-12.89812],[45.23209,-12.90165],[45.22952,-12.89908],[45.23065,-12.89553],[45.2342,-12.89812]]],[[[45.11818,-12.67502],[45.11273,-12.67645],[45.11359,-12.67322],[45.11818,-12.67502]]],[[[45.09984,-12.80194],[45.10046,-12.7976],[45.1077,-12.79556],[45.1121,-12.79636],[45.11234,-12.79334],[45.10945,-12.7912],[45.10535,-12.79291],[45.09768,-12.7924],[45.09668,-12.78696],[45.09467,-12.78452],[45.09822,-12.78274],[45.10181,-12.77723],[45.10326,-12.77333],[45.10204,-12.76669],[45.09945,-12.76516],[45.09167,-12.76969],[45.08709,-12.76524],[45.08071,-12.76397],[45.07908,-12.7669],[45.07461,-12.7652],[45.07296,-12.76158],[45.0646,-12.75678],[45.06274,-12.75233],[45.06004,-12.75087],[45.05426,-12.75214],[45.05152,-12.75611],[45.04994,-12.752],[45.04696,-12.75143],[45.0433,-12.74848],[45.04258,-12.74402],[45.04599,-12.73999],[45.05061,-12.73855],[45.05406,-12.73501],[45.05799,-12.72805],[45.05525,-12.72328],[45.0497,-12.72234],[45.04466,-12.72257],[45.04521,-12.71809],[45.04715,-12.71671],[45.05151,-12.70742],[45.05002,-12.70273],[45.05349,-12.69989],[45.0549,-12.70137],[45.05932,-12.70087],[45.06227,-12.70184],[45.06601,-12.70014],[45.06926,-12.69659],[45.07341,-12.69015],[45.07304,-12.68552],[45.08206,-12.68064],[45.08338,-12.67884],[45.08194,-12.67498],[45.08228,-12.67183],[45.08558,-12.66996],[45.08601,-12.66637],[45.09081,-12.66533],[45.09351,-12.6624],[45.09374,-12.65835],[45.09688,-12.65876],[45.10356,-12.65465],[45.10161,-12.66252],[45.08988,-12.66751],[45.08819,-12.66981],[45.0903,-12.67238],[45.09748,-12.67321],[45.09802,-12.67528],[45.10416,-12.67705],[45.10105,-12.68013],[45.10265,-12.68358],[45.10806,-12.68299],[45.10896,-12.68572],[45.11196,-12.68617],[45.11122,-12.69123],[45.11351,-12.69491],[45.12641,-12.70115],[45.13056,-12.70058],[45.13056,-12.70403],[45.12594,-12.70217],[45.12342,-12.70537],[45.12427,-12.71154],[45.12936,-12.71516],[45.12925,-12.71962],[45.1305,-12.72218],[45.12605,-12.72439],[45.12544,-12.72734],[45.12958,-12.72747],[45.13097,-12.73095],[45.1377,-12.73087],[45.14201,-12.73362],[45.148,-12.72814],[45.15073,-12.72921],[45.15066,-12.73459],[45.15483,-12.73668],[45.15815,-12.7351],[45.16215,-12.73092],[45.16394,-12.72678],[45.16361,-12.71991],[45.1664,-12.71772],[45.17014,-12.72325],[45.17003,-12.72575],[45.17679,-12.73014],[45.17932,-12.73045],[45.18322,-12.72692],[45.18639,-12.72962],[45.19037,-12.7289],[45.19376,-12.7307],[45.20392,-12.73021],[45.20646,-12.73414],[45.21138,-12.73562],[45.21306,-12.74055],[45.21786,-12.74168],[45.22107,-12.74445],[45.22566,-12.74365],[45.2279,-12.74884],[45.23172,-12.7525],[45.23549,-12.75177],[45.23516,-12.75599],[45.23657,-12.75953],[45.23979,-12.76123],[45.23578,-12.76522],[45.23618,-12.76711],[45.23427,-12.77286],[45.22974,-12.77293],[45.23369,-12.76713],[45.23013,-12.76422],[45.22908,-12.77022],[45.22739,-12.77407],[45.23231,-12.77601],[45.23433,-12.78326],[45.22602,-12.78717],[45.22298,-12.79117],[45.21625,-12.79608],[45.21518,-12.80179],[45.21053,-12.80549],[45.20395,-12.80864],[45.20344,-12.81992],[45.1957,-12.82313],[45.19197,-12.82999],[45.19541,-12.83113],[45.19362,-12.83462],[45.18956,-12.83843],[45.18548,-12.8383],[45.18621,-12.84274],[45.1907,-12.84229],[45.19427,-12.84458],[45.19489,-12.84967],[45.19717,-12.85476],[45.19978,-12.85399],[45.20205,-12.8568],[45.2015,-12.86248],[45.20271,-12.86334],[45.21244,-12.86299],[45.21002,-12.86888],[45.21391,-12.87349],[45.21867,-12.87132],[45.22175,-12.87352],[45.2173,-12.87772],[45.21572,-12.88268],[45.2167,-12.88618],[45.21149,-12.88972],[45.21083,-12.89139],[45.19841,-12.89607],[45.19386,-12.9054],[45.19624,-12.90826],[45.1971,-12.91423],[45.20091,-12.91583],[45.20357,-12.92052],[45.19653,-12.91898],[45.19541,-12.91772],[45.1877,-12.91642],[45.1839,-12.92136],[45.185,-12.92428],[45.17961,-12.92584],[45.17712,-12.92939],[45.17574,-12.93503],[45.17968,-12.9392],[45.17908,-12.94352],[45.1727,-12.94163],[45.16953,-12.94374],[45.16882,-12.94957],[45.17086,-12.95333],[45.17514,-12.95633],[45.1781,-12.9659],[45.18473,-12.97006],[45.19049,-12.97123],[45.19185,-12.97368],[45.19661,-12.97595],[45.19782,-12.97465],[45.20393,-12.97426],[45.19956,-12.98063],[45.1947,-12.9845],[45.19369,-12.98714],[45.18344,-12.98396],[45.18019,-12.98523],[45.17753,-12.99067],[45.17811,-12.99487],[45.1754,-12.99459],[45.17433,-12.98431],[45.17026,-12.9769],[45.1663,-12.97492],[45.16155,-12.97522],[45.1579,-12.97693],[45.15599,-12.98031],[45.15786,-12.98871],[45.15018,-12.99931],[45.14198,-12.99953],[45.13948,-12.99471],[45.1394,-12.9922],[45.1343,-12.98929],[45.12991,-12.99466],[45.12634,-12.99418],[45.12503,-12.9909],[45.12647,-12.9864],[45.12516,-12.98277],[45.1196,-12.98025],[45.11614,-12.98082],[45.11117,-12.98551],[45.10931,-12.99284],[45.10598,-12.9892],[45.10566,-12.98673],[45.10819,-12.98257],[45.10653,-12.97464],[45.11074,-12.96775],[45.11079,-12.9604],[45.10828,-12.95724],[45.10473,-12.95758],[45.09761,-12.96428],[45.09238,-12.96653],[45.08282,-12.96123],[45.08816,-12.95627],[45.09345,-12.95469],[45.10024,-12.9471],[45.10156,-12.94354],[45.10188,-12.93664],[45.1043,-12.93282],[45.10261,-12.92864],[45.09829,-12.92501],[45.09401,-12.92719],[45.08916,-12.92797],[45.0867,-12.92207],[45.08344,-12.92208],[45.07934,-12.9123],[45.07737,-12.90534],[45.07204,-12.90212],[45.07136,-12.89922],[45.08483,-12.89781],[45.09921,-12.8987],[45.10247,-12.90338],[45.1016,-12.91153],[45.10234,-12.91788],[45.10568,-12.92321],[45.11542,-12.92622],[45.12083,-12.92907],[45.12367,-12.92909],[45.12519,-12.93339],[45.13155,-12.93608],[45.14106,-12.93632],[45.14458,-12.9357],[45.14915,-12.93318],[45.15153,-12.93062],[45.15184,-12.92681],[45.15441,-12.92501],[45.15331,-12.91671],[45.14876,-12.91138],[45.14875,-12.90748],[45.14582,-12.90695],[45.14408,-12.90444],[45.14567,-12.90097],[45.1425,-12.89625],[45.13931,-12.89379],[45.13652,-12.88964],[45.1321,-12.88882],[45.13009,-12.88473],[45.12653,-12.88187],[45.12429,-12.882],[45.11877,-12.87677],[45.11375,-12.86662],[45.11121,-12.86364],[45.1043,-12.86316],[45.10042,-12.86059],[45.09505,-12.85369],[45.09873,-12.84951],[45.10253,-12.84352],[45.10634,-12.84473],[45.11635,-12.8437],[45.11842,-12.83914],[45.1121,-12.83659],[45.10294,-12.83556],[45.10078,-12.83374],[45.10383,-12.82489],[45.10325,-12.82145],[45.10603,-12.81947],[45.10565,-12.81369],[45.09963,-12.80742],[45.09984,-12.80194]]],[[[45.27135,-12.79331],[45.26601,-12.78887],[45.27159,-12.78464],[45.27701,-12.77348],[45.27536,-12.77135],[45.28102,-12.76489],[45.28464,-12.75883],[45.28762,-12.76339],[45.29287,-12.768],[45.29382,-12.77497],[45.29795,-12.77923],[45.29551,-12.78096],[45.29597,-12.78456],[45.29418,-12.78765],[45.29574,-12.79663],[45.29233,-12.79953],[45.28758,-12.79925],[45.28453,-12.80429],[45.28382,-12.81369],[45.27931,-12.81151],[45.27869,-12.80494],[45.27665,-12.80141],[45.27374,-12.79945],[45.27135,-12.79331]]],[[[45.23781,-12.80976],[45.24027,-12.81203],[45.23422,-12.81668],[45.23092,-12.81313],[45.23097,-12.80771],[45.23387,-12.80491],[45.23624,-12.80507],[45.23781,-12.80976]]]]},"properties":{"code":"976","nom":"Mayotte"}},
    {"geometry":{"type":"Polygon","coordinates":[[[-56.405876,46.834945],[-56.404486,46.837722],[-56.40325,46.837353],[-56.402357,46.839208],[-56.398898,46.83966],[-56.398512,46.841216],[-56.395919,46.842336],[-56.395937,46.843657],[-56.393714,46.845899],[-56.387654,46.849245],[-56.386289,46.851241],[-56.385173,46.851429],[-56.383354,46.855192],[-56.380865,46.857487],[-56.376822,46.858748],[-56.37417,46.85913],[-56.365947,46.86156],[-56.361081,46.863531],[-56.357115,46.863027],[-56.3543,46.865703],[-56.349528,46.867569],[-56.3469,46.869793],[-56.346222,46.871753],[-56.342811,46.875577],[-56.341961,46.877395],[-56.341916,46.882511],[-56.341455,46.885004],[-56.342081,46.888278],[-56.341549,46.89002],[-56.338076,46.894306],[-56.336866,46.894799],[-56.333794,46.894386],[-56.332119,46.895386],[-56.330434,46.897324],[-56.32825,46.906127],[-56.327563,46.913451],[-56.327536,46.92013],[-56.328809,46.932069],[-56.328859,46.93462],[-56.330266,46.941119],[-56.33242,46.949233],[-56.335922,46.960235],[-56.337947,46.965601],[-56.341724,46.973367],[-56.343037,46.976524],[-56.349492,46.98875],[-56.352968,46.995688],[-56.359337,47.005155],[-56.36158,47.007017],[-56.363658,47.007625],[-56.366713,47.009621],[-56.369091,47.009972],[-56.37097,47.009393],[-56.372206,47.011353],[-56.373271,47.011418],[-56.375228,47.013255],[-56.377871,47.014367],[-56.381098,47.017896],[-56.38194,47.017855],[-56.383261,47.020886],[-56.3826,47.022729],[-56.383227,47.024467],[-56.384604,47.025621],[-56.38448,47.027316],[-56.385596,47.03037],[-56.386051,47.033015],[-56.384823,47.035571],[-56.384343,47.039824],[-56.385965,47.044959],[-56.387828,47.048503],[-56.389158,47.053533],[-56.388686,47.057164],[-56.386592,47.059485],[-56.385853,47.062415],[-56.383536,47.065215],[-56.383313,47.070008],[-56.384781,47.08149],[-56.386369,47.086248],[-56.387634,47.09274],[-56.388823,47.096935],[-56.390857,47.100394],[-56.393729,47.102365],[-56.396416,47.102078],[-56.399197,47.102593],[-56.401643,47.104696],[-56.399744,47.105982],[-56.399691,47.108311],[-56.401133,47.110495],[-56.398678,47.114128],[-56.394918,47.116161],[-56.394645,47.120682],[-56.39157,47.122556],[-56.392317,47.125359],[-56.391287,47.126703],[-56.387931,47.128781],[-56.385717,47.128519],[-56.385296,47.130101],[-56.381974,47.132168],[-56.379545,47.131649],[-56.377228,47.132741],[-56.373949,47.131532],[-56.371048,47.131742],[-56.36631,47.133377],[-56.365641,47.134714],[-56.363181,47.134426],[-56.361135,47.135555],[-56.361435,47.137552],[-56.357448,47.137498],[-56.353139,47.139575],[-56.349462,47.143092],[-56.347522,47.142754],[-56.346032,47.143884],[-56.343668,47.143945],[-56.344058,47.139908],[-56.342693,47.137351],[-56.34271,47.13282],[-56.347174,47.131769],[-56.350427,47.130584],[-56.352298,47.129223],[-56.355534,47.129007],[-56.359199,47.126175],[-56.361001,47.124248],[-56.36155,47.12211],[-56.36567,47.12044],[-56.36834,47.119809],[-56.369747,47.118547],[-56.371721,47.117957],[-56.373429,47.118261],[-56.379506,47.117192],[-56.380605,47.116053],[-56.3816,47.113384],[-56.381506,47.110621],[-56.380828,47.107992],[-56.379395,47.104744],[-56.37788,47.102515],[-56.375454,47.101085],[-56.371729,47.09762],[-56.368622,47.095885],[-56.363086,47.094705],[-56.36149,47.094909],[-56.357803,47.096855],[-56.353468,47.097533],[-56.352189,47.098824],[-56.34757,47.098372],[-56.343844,47.097028],[-56.339544,47.093838],[-56.337553,47.092728],[-56.332386,47.090846],[-56.331021,47.090834],[-56.325644,47.086101],[-56.320222,47.082065],[-56.317003,47.080148],[-56.308369,47.076226],[-56.298362,47.072501],[-56.28446,47.068946],[-56.273731,47.067274],[-56.271337,47.067163],[-56.260876,47.062961],[-56.256748,47.060645],[-56.254396,47.059932],[-56.253538,47.058564],[-56.252825,47.055558],[-56.252954,47.053903],[-56.252035,47.050652],[-56.252465,47.046997],[-56.251898,47.046102],[-56.25255,47.04261],[-56.251907,47.040897],[-56.250216,47.03975],[-56.25013,47.038504],[-56.252705,47.035509],[-56.25237,47.033678],[-56.254688,47.031169],[-56.258061,47.025786],[-56.259383,47.021714],[-56.26158,47.018566],[-56.264687,47.013153],[-56.270163,46.999228],[-56.271682,46.997654],[-56.276711,46.993547],[-56.277892,46.990868],[-56.279072,46.989882],[-56.280479,46.99059],[-56.282917,46.99018],[-56.287646,46.988377],[-56.29471,46.984021],[-56.299837,46.980368],[-56.302177,46.979805],[-56.303903,46.978272],[-56.306618,46.974257],[-56.312377,46.967675],[-56.315553,46.963267],[-56.317742,46.95905],[-56.320485,46.950104],[-56.323195,46.94244],[-56.324072,46.938671],[-56.324416,46.933571],[-56.325307,46.930048],[-56.325628,46.926714],[-56.323966,46.919769],[-56.323321,46.918759],[-56.322909,46.915197],[-56.319285,46.907481],[-56.316489,46.903795],[-56.312935,46.900853],[-56.311048,46.901065],[-56.306295,46.90065],[-56.305187,46.899647],[-56.300061,46.898758],[-56.299864,46.897474],[-56.29504,46.893198],[-56.292952,46.891721],[-56.289338,46.890601],[-56.286661,46.891956],[-56.285159,46.891627],[-56.28091,46.894014],[-56.278026,46.894431],[-56.275271,46.893381],[-56.273443,46.893393],[-56.272773,46.894401],[-56.269958,46.895152],[-56.267152,46.892135],[-56.266834,46.891064],[-56.264662,46.890683],[-56.262748,46.888454],[-56.25983,46.8867],[-56.256199,46.885206],[-56.25456,46.884948],[-56.252405,46.886467],[-56.247968,46.887329],[-56.245951,46.886156],[-56.247959,46.884531],[-56.247208,46.882595],[-56.247079,46.878324],[-56.245731,46.875326],[-56.243663,46.875496],[-56.241182,46.873096],[-56.241148,46.871782],[-56.239234,46.870649],[-56.240213,46.867328],[-56.239414,46.865726],[-56.237638,46.865169],[-56.238093,46.86288],[-56.240788,46.857586],[-56.239509,46.855039],[-56.237732,46.853736],[-56.23908,46.85127],[-56.241663,46.849022],[-56.241955,46.845805],[-56.243375,46.843671],[-56.248963,46.839814],[-56.251237,46.838816],[-56.252139,46.837289],[-56.255065,46.835581],[-56.256516,46.833942],[-56.260679,46.832351],[-56.266176,46.828727],[-56.269,46.827735],[-56.272768,46.82545],[-56.274287,46.823524],[-56.277669,46.821651],[-56.279737,46.821498],[-56.288767,46.818696],[-56.291144,46.818702],[-56.291797,46.816911],[-56.293805,46.815901],[-56.294912,46.814315],[-56.299504,46.81166],[-56.307212,46.807606],[-56.307993,46.8079],[-56.312841,46.806524],[-56.312473,46.80572],[-56.316997,46.803112],[-56.318756,46.802589],[-56.325811,46.79659],[-56.327966,46.792271],[-56.330918,46.790784],[-56.332944,46.790661],[-56.334145,46.792259],[-56.336214,46.790455],[-56.339184,46.789145],[-56.344085,46.784802],[-56.349612,46.782539],[-56.350387,46.783155],[-56.350163,46.786229],[-56.349451,46.788833],[-56.348361,46.789779],[-56.351683,46.791977],[-56.350301,46.794386],[-56.352395,46.794509],[-56.355425,46.796395],[-56.357785,46.795097],[-56.359279,46.79522],[-56.360257,46.797347],[-56.362604,46.799503],[-56.365785,46.799586],[-56.369707,46.796272],[-56.371098,46.793692],[-56.3725,46.794516],[-56.374617,46.797124],[-56.373106,46.798352],[-56.373295,46.79975],[-56.376101,46.801872],[-56.376127,46.803064],[-56.373089,46.804639],[-56.37381,46.806724],[-56.373158,46.811483],[-56.371218,46.814191],[-56.371673,46.815777],[-56.369896,46.820734],[-56.37066,46.824093],[-56.374205,46.826478],[-56.377981,46.828163],[-56.384925,46.828762],[-56.38689,46.828169],[-56.388959,46.828662],[-56.39265,46.827411],[-56.398812,46.826395],[-56.400785,46.825357],[-56.400563,46.822825],[-56.402761,46.821251],[-56.403481,46.822537],[-56.401851,46.824052],[-56.40216,46.82535],[-56.401052,46.826707],[-56.401301,46.830107],[-56.403267,46.831234],[-56.404271,46.833413],[-56.405876,46.834945]]]},"type":"Feature","properties":{"nom":"St-Pierre et Miquelon","code":"975"}},
{"type": "Feature","properties": {"nom":"Saint-Barthélemy","code":"977"},"geometry": {"type": "Polygon","coordinates": [[[-62.80677795410156,17.982651756454118],[-62.966079711914055,17.975467478368685],[-62.947540283203125,17.90556881196468],[-62.78858184814454,17.85427048118371],[-62.7374267578125,17.906222198268225],[-62.80677795410156,17.982651756454118]]]}},
{"type":"Feature","properties":{"nom":"Saint-Martin","code":"978"},"geometry":{"type":"Polygon","coordinates":[[[-62.971057,18.129049],[-63.055171,18.128396],[-63.15422,18.07961],[-63.156967,18.05562],[-63.141345,18.052356],[-63.118343,18.053988],[-63.096885,18.046481],[-63.085384,18.047949],[-63.076114,18.050398],[-63.072853,18.056436],[-63.066501,18.057579],[-63.063583,18.062965],[-63.058605,18.063128],[-63.052768,18.063617],[-63.040065,18.056273],[-63.03646,18.057742],[-63.028736,18.054315],[-63.023586,18.056763],[-63.019123,18.055457],[-63.005905,18.052519],[-62.964363,18.120076],[-62.971057,18.129049]]]}}
]}

